<?xml version="1.0" encoding="UTF-8" standalone="no"?>
<!-- Created with Inkscape (http://www.inkscape.org/) -->

<svg
   xmlns:dc="http://purl.org/dc/elements/1.1/"
   xmlns:cc="http://creativecommons.org/ns#"
   xmlns:rdf="http://www.w3.org/1999/02/22-rdf-syntax-ns#"
   xmlns:svg="http://www.w3.org/2000/svg"
   xmlns="http://www.w3.org/2000/svg"
   xmlns:sodipodi="http://sodipodi.sourceforge.net/DTD/sodipodi-0.dtd"
   xmlns:inkscape="http://www.inkscape.org/namespaces/inkscape"
   width="656.59235"
   height="655.17108"
   id="svg2"
   sodipodi:version="0.32"
   inkscape:version="0.47 r22583"
   sodipodi:docname="affecation_ref2.svg"
   inkscape:output_extension="org.inkscape.output.svg.inkscape"
   version="1.0">
  <defs
     id="defs4">
    <inkscape:perspective
       sodipodi:type="inkscape:persp3d"
       inkscape:vp_x="0 : 327.58554 : 1"
       inkscape:vp_y="0 : 1000 : 0"
       inkscape:vp_z="656.59235 : 327.58554 : 1"
       inkscape:persp3d-origin="328.29617 : 218.39036 : 1"
       id="perspective33" />
    <marker
       inkscape:stockid="Arrow2Mend"
       orient="auto"
       refY="0"
       refX="0"
       id="Arrow2Mend"
       style="overflow:visible">
      <path
         id="path5113"
         style="font-size:12px;fill-rule:evenodd;stroke-width:0.625;stroke-linejoin:round"
         d="M 8.7185878,4.0337352 L -2.2072895,0.016013256 L 8.7185884,-4.0017078 C 6.97309,-1.6296469 6.9831476,1.6157441 8.7185878,4.0337352 z "
         transform="scale(-0.6,-0.6)" />
    </marker>
    <marker
       inkscape:stockid="Arrow1Mend"
       orient="auto"
       refY="0"
       refX="0"
       id="Arrow1Mend"
       style="overflow:visible">
      <path
         id="path5095"
         d="M 0,0 L 5,-5 L -12.5,0 L 5,5 L 0,0 z "
         style="fill-rule:evenodd;stroke:#000000;stroke-width:1pt;marker-start:none"
         transform="matrix(-0.4,0,0,-0.4,-4,0)" />
    </marker>
    <marker
       inkscape:stockid="Arrow1Lstart"
       orient="auto"
       refY="0"
       refX="0"
       id="Arrow1Lstart"
       style="overflow:visible">
      <path
         id="path5086"
         d="M 0,0 L 5,-5 L -12.5,0 L 5,5 L 0,0 z "
         style="fill-rule:evenodd;stroke:#000000;stroke-width:1pt;marker-start:none"
         transform="matrix(0.8,0,0,0.8,10,0)" />
    </marker>
    <marker
       inkscape:stockid="Arrow1Lend"
       orient="auto"
       refY="0"
       refX="0"
       id="Arrow1Lend"
       style="overflow:visible">
      <path
         id="path5089"
         d="M 0,0 L 5,-5 L -12.5,0 L 5,5 L 0,0 z "
         style="fill-rule:evenodd;stroke:#000000;stroke-width:1pt;marker-start:none"
         transform="matrix(-0.8,0,0,-0.8,-10,0)" />
    </marker>
    <marker
       inkscape:stockid="Arrow2Lend"
       orient="auto"
       refY="0"
       refX="0"
       id="Arrow2Lend"
       style="overflow:visible">
      <path
         id="path3513"
         style="font-size:12px;fill-rule:evenodd;stroke-width:0.625;stroke-linejoin:round"
         d="M 8.7185878,4.0337352 L -2.2072895,0.016013256 L 8.7185884,-4.0017078 C 6.97309,-1.6296469 6.9831476,1.6157441 8.7185878,4.0337352 z "
         transform="matrix(-1.1,0,0,-1.1,-1.1,0)" />
    </marker>
    <inkscape:perspective
       id="perspective2868"
       inkscape:persp3d-origin="0.5 : 0.33333333 : 1"
       inkscape:vp_z="1 : 0.5 : 1"
       inkscape:vp_y="0 : 1000 : 0"
       inkscape:vp_x="0 : 0.5 : 1"
       sodipodi:type="inkscape:persp3d" />
    <inkscape:perspective
       id="perspective2899"
       inkscape:persp3d-origin="0.5 : 0.33333333 : 1"
       inkscape:vp_z="1 : 0.5 : 1"
       inkscape:vp_y="0 : 1000 : 0"
       inkscape:vp_x="0 : 0.5 : 1"
       sodipodi:type="inkscape:persp3d" />
    <inkscape:perspective
       id="perspective2930"
       inkscape:persp3d-origin="0.5 : 0.33333333 : 1"
       inkscape:vp_z="1 : 0.5 : 1"
       inkscape:vp_y="0 : 1000 : 0"
       inkscape:vp_x="0 : 0.5 : 1"
       sodipodi:type="inkscape:persp3d" />
    <inkscape:perspective
       id="perspective2961"
       inkscape:persp3d-origin="0.5 : 0.33333333 : 1"
       inkscape:vp_z="1 : 0.5 : 1"
       inkscape:vp_y="0 : 1000 : 0"
       inkscape:vp_x="0 : 0.5 : 1"
       sodipodi:type="inkscape:persp3d" />
    <marker
       inkscape:stockid="Arrow2Mend"
       orient="auto"
       refY="0"
       refX="0"
       id="Arrow2Mend-4"
       style="overflow:visible">
      <path
         id="path5113-9"
         style="font-size:12px;fill-rule:evenodd;stroke-width:0.625;stroke-linejoin:round"
         d="M 8.7185878,4.0337352 -2.2072895,0.01601326 8.7185884,-4.0017078 c -1.7454984,2.3720609 -1.7354408,5.6174519 -6e-7,8.035443 z"
         transform="scale(-0.6,-0.6)" />
    </marker>
    <inkscape:perspective
       id="perspective7541"
       inkscape:persp3d-origin="0.5 : 0.33333333 : 1"
       inkscape:vp_z="1 : 0.5 : 1"
       inkscape:vp_y="0 : 1000 : 0"
       inkscape:vp_x="0 : 0.5 : 1"
       sodipodi:type="inkscape:persp3d" />
  </defs>
  <sodipodi:namedview
     id="base"
     pagecolor="#ffffff"
     bordercolor="#666666"
     borderopacity="1.0"
     inkscape:pageopacity="0.0"
     inkscape:pageshadow="2"
     inkscape:zoom="1.2927806"
     inkscape:cx="48.565004"
     inkscape:cy="328.53419"
     inkscape:document-units="px"
     inkscape:current-layer="layer1"
     inkscape:window-width="1916"
     inkscape:window-height="1145"
     inkscape:window-x="1600"
     inkscape:window-y="34"
     showgrid="false"
     inkscape:window-maximized="0" />
  <metadata
     id="metadata7">
    <rdf:RDF>
      <cc:Work
         rdf:about="">
        <dc:format>image/svg+xml</dc:format>
        <dc:type
           rdf:resource="http://purl.org/dc/dcmitype/StillImage" />
        <dc:title></dc:title>
      </cc:Work>
    </rdf:RDF>
  </metadata>
  <g
     inkscape:label="Calque 1"
     inkscape:groupmode="layer"
     id="layer1"
     transform="translate(-8.3301905,-171.24726)">
    <path
       sodipodi:type="arc"
       style="opacity:1;fill:none;fill-opacity:1;fill-rule:nonzero;stroke:#000000;stroke-width:4;stroke-miterlimit:4;stroke-dasharray:none;stroke-opacity:1"
       id="path3152"
       sodipodi:cx="297.00241"
       sodipodi:cy="271.84201"
       sodipodi:rx="278.40558"
       sodipodi:ry="278.40558"
       d="m 575.40799,271.84201 c 0,153.75916 -124.64642,278.40558 -278.40558,278.40558 -153.75915,0 -278.405578,-124.64642 -278.405578,-278.40558 0,-153.75915 124.646428,-278.4055781 278.405578,-278.4055781 153.75916,0 278.40558,124.6464281 278.40558,278.4055781 z"
       transform="translate(87.514527,250.51033)"
       inkscape:export-filename="/home/david/logilab/svn/prive/formation/python/syntaxe/funccall_ref_1.png"
       inkscape:export-xdpi="54.810112"
       inkscape:export-ydpi="54.810112" />
    <path
       style="fill:none;fill-rule:evenodd;stroke:#000000;stroke-width:1;stroke-linecap:butt;stroke-linejoin:miter;stroke-opacity:1;stroke-miterlimit:4;stroke-dasharray:none"
       d="M 228.44803,167.18785 C 228.81537,821.72629 228.81537,821.72629 228.81537,821.72629"
       id="path3166"
       inkscape:export-filename="/home/david/logilab/svn/prive/formation/python/syntaxe/funccall_ref_1.png"
       inkscape:export-xdpi="54.810112"
       inkscape:export-ydpi="54.810112" />
    <text
       xml:space="preserve"
       style="font-size:31.7627697px;font-style:normal;font-weight:normal;fill:#000000;fill-opacity:1;stroke:none;stroke-width:1px;stroke-linecap:butt;stroke-linejoin:miter;stroke-opacity:1;font-family:Bitstream Vera Sans"
       x="292.26846"
       y="213.39397"
       id="text2272"
       transform="scale(0.9688646,1.032136)"
       inkscape:export-filename="/home/david/logilab/svn/prive/formation/python/syntaxe/funccall_ref_1.png"
       inkscape:export-xdpi="54.810112"
       inkscape:export-ydpi="54.810112"><tspan
         sodipodi:role="line"
         id="tspan2274"
         x="292.26846"
         y="213.39397">Memory</tspan></text>
    <g
       id="g6548"
       transform="translate(36.099742,-49.226921)">
      <rect
         inkscape:export-ydpi="54.810112"
         inkscape:export-xdpi="54.810112"
         inkscape:export-filename="/home/david/logilab/svn/prive/formation/python/syntaxe/funccall_ref_1.png"
         y="428.82117"
         x="127.99"
         height="40.475468"
         width="40.475468"
         id="rect2492"
         style="opacity:1;fill:#ffffff;fill-opacity:1;fill-rule:nonzero;stroke:#000000;stroke-width:4;stroke-miterlimit:4;stroke-dasharray:none;stroke-dashoffset:0;stroke-opacity:1" />
      <text
         inkscape:export-ydpi="54.810112"
         inkscape:export-xdpi="54.810112"
         inkscape:export-filename="/home/david/logilab/svn/prive/formation/python/syntaxe/funccall_ref_1.png"
         id="text2494"
         y="462.29181"
         x="134.11894"
         style="font-size:48.48125076px;font-style:normal;font-weight:normal;fill:#000000;fill-opacity:1;stroke:none;stroke-width:1px;stroke-linecap:butt;stroke-linejoin:miter;stroke-opacity:1;font-family:Bitstream Vera Sans"
         xml:space="preserve"><tspan
           y="462.29181"
           x="134.11894"
           id="tspan2496"
           sodipodi:role="line">a</tspan></text>
    </g>
    <path
       style="fill:none;fill-opacity:0.75;fill-rule:evenodd;stroke:#000000;stroke-width:4;stroke-linecap:butt;stroke-linejoin:miter;marker-end:url(#Arrow2Mend);stroke-miterlimit:4;stroke-dasharray:none;stroke-opacity:1;display:inline"
       d="m 203.99681,387.65009 113.82937,23.86042"
       id="path4112"
       inkscape:connector-type="polyline"
       inkscape:export-filename="/home/david/logilab/svn/prive/formation/python/syntaxe/funccall_ref_1.png"
       inkscape:export-xdpi="54.810112"
       inkscape:export-ydpi="54.810112"
       sodipodi:nodetypes="cc"
       inkscape:connection-start="#g6548" />
    <text
       inkscape:export-ydpi="54.810112"
       inkscape:export-xdpi="54.810112"
       inkscape:export-filename="/home/david/logilab/svn/prive/formation/python/syntaxe/funccall_ref_1.png"
       transform="scale(0.9688646,1.032136)"
       id="text10462"
       y="213.39397"
       x="16.771446"
       style="font-size:31.7627697px;font-style:normal;font-weight:normal;fill:#000000;fill-opacity:1;stroke:none;stroke-width:1px;stroke-linecap:butt;stroke-linejoin:miter;stroke-opacity:1;font-family:Bitstream Vera Sans"
       xml:space="preserve"><tspan
         y="213.39397"
         x="16.771446"
         id="tspan10464"
         sodipodi:role="line">Names</tspan></text>
    <rect
       style="fill:#ffffff;fill-opacity:1;fill-rule:nonzero;stroke:#000000;stroke-width:4;stroke-miterlimit:4;stroke-opacity:1;stroke-dasharray:none;stroke-dashoffset:0"
       id="rect2492-1"
       width="40.475468"
       height="40.475468"
       x="162.13591"
       y="461.96133"
       inkscape:export-filename="/home/david/logilab/svn/prive/formation/python/syntaxe/funccall_ref_1.png"
       inkscape:export-xdpi="54.810112"
       inkscape:export-ydpi="54.810112" />
    <text
       xml:space="preserve"
       style="font-size:48.48125076px;font-style:normal;font-weight:normal;fill:#000000;fill-opacity:1;stroke:none;font-family:Bitstream Vera Sans"
       x="166.71779"
       y="499.29962"
       id="text2494-4"
       inkscape:export-filename="/home/david/logilab/svn/prive/formation/python/syntaxe/funccall_ref_1.png"
       inkscape:export-xdpi="54.810112"
       inkscape:export-ydpi="54.810112"><tspan
         sodipodi:role="line"
         id="tspan2496-9"
         x="166.71779"
         y="499.29962">b</tspan></text>
    <g
       id="g7528">
      <rect
         inkscape:export-ydpi="54.810112"
         inkscape:export-xdpi="54.810112"
         inkscape:export-filename="/home/david/logilab/svn/prive/formation/python/syntaxe/funccall_ref_1.png"
         y="394.25027"
         x="321.33356"
         height="45.945126"
         width="54.696579"
         id="rect2276-0"
         style="fill:#ffffff;fill-opacity:1;fill-rule:nonzero;stroke:#000000;stroke-width:4;stroke-miterlimit:4;stroke-opacity:1;stroke-dasharray:none;stroke-dashoffset:0" />
      <text
         inkscape:export-ydpi="54.810112"
         inkscape:export-xdpi="54.810112"
         inkscape:export-filename="/home/david/logilab/svn/prive/formation/python/syntaxe/funccall_ref_1.png"
         id="text2278-6"
         y="429.24908"
         x="327.89703"
         style="font-size:32.40753555px;font-style:normal;font-weight:normal;fill:#000000;fill-opacity:1;stroke:none;font-family:Bitstream Vera Sans"
         xml:space="preserve"><tspan
           y="429.24908"
           x="327.89703"
           id="tspan2280-8"
           sodipodi:role="line">13</tspan></text>
    </g>
    <path
       style="fill:none;stroke:#000000;stroke-width:4;stroke-linecap:butt;stroke-linejoin:miter;stroke-opacity:1;stroke-miterlimit:4;stroke-dasharray:none;marker-start:none;marker-end:url(#Arrow2Mend-4)"
       d="m 194.15514,314.04591 c 114.48192,-66.52328 155.47882,53.37332 155.47882,53.37332"
       id="path4383"
       transform="translate(8.3301905,171.24726)"
       sodipodi:nodetypes="cc" />
    <g
       id="g7567"
       transform="translate(23.97932,-24.752847)">
      <rect
         inkscape:export-ydpi="54.810112"
         inkscape:export-xdpi="54.810112"
         inkscape:export-filename="/home/david/logilab/svn/prive/formation/python/syntaxe/funccall_ref_1.png"
         y="568.29376"
         x="308.95712"
         height="45.945126"
         width="54.696579"
         id="rect2276-0-6"
         style="fill:#ffffff;fill-opacity:1;fill-rule:nonzero;stroke:#000000;stroke-width:4;stroke-miterlimit:4;stroke-opacity:1;stroke-dasharray:none;stroke-dashoffset:0" />
      <text
         inkscape:export-ydpi="54.810112"
         inkscape:export-xdpi="54.810112"
         inkscape:export-filename="/home/david/logilab/svn/prive/formation/python/syntaxe/funccall_ref_1.png"
         id="text2278-6-3"
         y="603.29254"
         x="315.5206"
         style="font-size:32.40753555px;font-style:normal;font-weight:normal;fill:#000000;fill-opacity:1;stroke:none;font-family:Bitstream Vera Sans"
         xml:space="preserve"><tspan
           y="603.29254"
           x="315.5206"
           id="tspan2280-8-9"
           sodipodi:role="line">14</tspan></text>
    </g>
  </g>
</svg>
