<?xml version="1.0" encoding="UTF-8" standalone="no"?>
<!-- Created with Inkscape (http://www.inkscape.org/) -->

<svg
   xmlns:dc="http://purl.org/dc/elements/1.1/"
   xmlns:cc="http://creativecommons.org/ns#"
   xmlns:rdf="http://www.w3.org/1999/02/22-rdf-syntax-ns#"
   xmlns:svg="http://www.w3.org/2000/svg"
   xmlns="http://www.w3.org/2000/svg"
   xmlns:sodipodi="http://sodipodi.sourceforge.net/DTD/sodipodi-0.dtd"
   xmlns:inkscape="http://www.inkscape.org/namespaces/inkscape"
   width="656.59235"
   height="655.17108"
   id="svg2"
   sodipodi:version="0.32"
   inkscape:version="0.47 r22583"
   sodipodi:docname="funccall_ref_2-en.svg"
   inkscape:output_extension="org.inkscape.output.svg.inkscape"
   version="1.0">
  <defs
     id="defs4">
    <inkscape:perspective
       sodipodi:type="inkscape:persp3d"
       inkscape:vp_x="0 : 327.58554 : 1"
       inkscape:vp_y="0 : 1000 : 0"
       inkscape:vp_z="656.59235 : 327.58554 : 1"
       inkscape:persp3d-origin="328.29617 : 218.39036 : 1"
       id="perspective52" />
    <marker
       inkscape:stockid="Arrow2Mend"
       orient="auto"
       refY="0"
       refX="0"
       id="Arrow2Mend"
       style="overflow:visible">
      <path
         id="path5113"
         style="font-size:12px;fill-rule:evenodd;stroke-width:0.625;stroke-linejoin:round"
         d="M 8.7185878,4.0337352 L -2.2072895,0.016013256 L 8.7185884,-4.0017078 C 6.97309,-1.6296469 6.9831476,1.6157441 8.7185878,4.0337352 z "
         transform="scale(-0.6,-0.6)" />
    </marker>
    <marker
       inkscape:stockid="Arrow1Mend"
       orient="auto"
       refY="0"
       refX="0"
       id="Arrow1Mend"
       style="overflow:visible">
      <path
         id="path5095"
         d="M 0,0 L 5,-5 L -12.5,0 L 5,5 L 0,0 z "
         style="fill-rule:evenodd;stroke:#000000;stroke-width:1pt;marker-start:none"
         transform="matrix(-0.4,0,0,-0.4,-4,0)" />
    </marker>
    <marker
       inkscape:stockid="Arrow1Lstart"
       orient="auto"
       refY="0"
       refX="0"
       id="Arrow1Lstart"
       style="overflow:visible">
      <path
         id="path5086"
         d="M 0,0 L 5,-5 L -12.5,0 L 5,5 L 0,0 z "
         style="fill-rule:evenodd;stroke:#000000;stroke-width:1pt;marker-start:none"
         transform="matrix(0.8,0,0,0.8,10,0)" />
    </marker>
    <marker
       inkscape:stockid="Arrow1Lend"
       orient="auto"
       refY="0"
       refX="0"
       id="Arrow1Lend"
       style="overflow:visible">
      <path
         id="path5089"
         d="M 0,0 L 5,-5 L -12.5,0 L 5,5 L 0,0 z "
         style="fill-rule:evenodd;stroke:#000000;stroke-width:1pt;marker-start:none"
         transform="matrix(-0.8,0,0,-0.8,-10,0)" />
    </marker>
    <marker
       inkscape:stockid="Arrow2Lend"
       orient="auto"
       refY="0"
       refX="0"
       id="Arrow2Lend"
       style="overflow:visible">
      <path
         id="path3513"
         style="font-size:12px;fill-rule:evenodd;stroke-width:0.625;stroke-linejoin:round"
         d="M 8.7185878,4.0337352 L -2.2072895,0.016013256 L 8.7185884,-4.0017078 C 6.97309,-1.6296469 6.9831476,1.6157441 8.7185878,4.0337352 z "
         transform="matrix(-1.1,0,0,-1.1,-1.1,0)" />
    </marker>
  </defs>
  <sodipodi:namedview
     id="base"
     pagecolor="#ffffff"
     bordercolor="#666666"
     borderopacity="1.0"
     inkscape:pageopacity="0.0"
     inkscape:pageshadow="2"
     inkscape:zoom="1.2927806"
     inkscape:cx="201.33648"
     inkscape:cy="328.53419"
     inkscape:document-units="px"
     inkscape:current-layer="layer1"
     inkscape:window-width="958"
     inkscape:window-height="1160"
     inkscape:window-x="0"
     inkscape:window-y="38"
     showgrid="false"
     inkscape:window-maximized="0" />
  <metadata
     id="metadata7">
    <rdf:RDF>
      <cc:Work
         rdf:about="">
        <dc:format>image/svg+xml</dc:format>
        <dc:type
           rdf:resource="http://purl.org/dc/dcmitype/StillImage" />
      </cc:Work>
    </rdf:RDF>
  </metadata>
  <g
     inkscape:label="Calque 1"
     inkscape:groupmode="layer"
     id="layer1"
     transform="translate(-8.3301905,-171.24726)">
    <path
       style="fill:#c72b2b;fill-opacity:0.27037516;fill-rule:nonzero;stroke:#c72b2b;stroke-width:2;stroke-miterlimit:4;stroke-opacity:1"
       d="M 114 310.59375 C 111.97339 323.80207 110.90625 337.32142 110.90625 351.09375 C 110.90625 432.60939 147.74196 505.57516 205.65625 554.25 L 205.65625 310.59375 L 114 310.59375 z "
       transform="translate(8.3301905,171.24726)"
       id="path6573" />
    <path
       sodipodi:type="arc"
       style="opacity:1;fill:none;fill-opacity:1;fill-rule:nonzero;stroke:#000000;stroke-width:4;stroke-miterlimit:4;stroke-dasharray:none;stroke-opacity:1"
       id="path3152"
       sodipodi:cx="297.00241"
       sodipodi:cy="271.84201"
       sodipodi:rx="278.40558"
       sodipodi:ry="278.40558"
       d="m 575.40799,271.84201 c 0,153.75916 -124.64642,278.40558 -278.40558,278.40558 -153.75915,0 -278.405578,-124.64642 -278.405578,-278.40558 0,-153.75915 124.646428,-278.4055781 278.405578,-278.4055781 153.75916,0 278.40558,124.6464281 278.40558,278.4055781 z"
       transform="translate(87.514527,250.51033)"
       inkscape:export-filename="/home/david/logilab/svn/prive/formation/python/syntaxe/funccall_ref_1.png"
       inkscape:export-xdpi="54.810112"
       inkscape:export-ydpi="54.810112" />
    <path
       style="fill:none;fill-rule:evenodd;stroke:#000000;stroke-width:1;stroke-linecap:butt;stroke-linejoin:miter;stroke-opacity:1;stroke-miterlimit:4;stroke-dasharray:none"
       d="M 228.44803,167.18785 C 228.81537,821.72629 228.81537,821.72629 228.81537,821.72629"
       id="path3166"
       inkscape:export-filename="/home/david/logilab/svn/prive/formation/python/syntaxe/funccall_ref_1.png"
       inkscape:export-xdpi="54.810112"
       inkscape:export-ydpi="54.810112" />
    <text
       xml:space="preserve"
       style="font-size:31.76276918px;font-style:normal;font-weight:normal;fill:#000000;fill-opacity:1;stroke:none;stroke-width:1px;stroke-linecap:butt;stroke-linejoin:miter;stroke-opacity:1;font-family:Bitstream Vera Sans;-inkscape-font-specification:Bitstream Vera Sans;font-stretch:normal;font-variant:normal;text-anchor:start;text-align:start;writing-mode:lr;line-height:125%"
       x="292.26846"
       y="213.39397"
       id="text2272"
       transform="scale(0.9688646,1.032136)"
       inkscape:export-filename="/home/david/logilab/svn/prive/formation/python/syntaxe/funccall_ref_1.png"
       inkscape:export-xdpi="54.810112"
       inkscape:export-ydpi="54.810112"
       sodipodi:linespacing="125%"><tspan
         sodipodi:role="line"
         id="tspan2860">Memory</tspan></text>
    <g
       id="g6535"
       transform="translate(68.91769,-45.945125)">
      <rect
         inkscape:export-ydpi="54.810112"
         inkscape:export-xdpi="54.810112"
         inkscape:export-filename="/home/david/logilab/svn/prive/formation/python/syntaxe/funccall_ref_1.png"
         y="335.83701"
         x="243.94675"
         height="45.945126"
         width="54.696579"
         id="rect2276"
         style="opacity:1;fill:#ffffff;fill-opacity:1;fill-rule:nonzero;stroke:#000000;stroke-width:4;stroke-miterlimit:4;stroke-dasharray:none;stroke-dashoffset:0;stroke-opacity:1" />
      <text
         inkscape:export-ydpi="54.810112"
         inkscape:export-xdpi="54.810112"
         inkscape:export-filename="/home/david/logilab/svn/prive/formation/python/syntaxe/funccall_ref_1.png"
         id="text2278"
         y="370.83582"
         x="250.51022"
         style="font-size:32.40753555px;font-style:normal;font-weight:normal;fill:#000000;fill-opacity:1;stroke:none;stroke-width:1px;stroke-linecap:butt;stroke-linejoin:miter;stroke-opacity:1;font-family:Bitstream Vera Sans"
         xml:space="preserve"><tspan
           y="370.83582"
           x="250.51022"
           id="tspan2280"
           sodipodi:role="line">12</tspan></text>
    </g>
    <g
       id="g6548"
       transform="translate(36.099742,-49.226921)">
      <rect
         inkscape:export-ydpi="54.810112"
         inkscape:export-xdpi="54.810112"
         inkscape:export-filename="/home/david/logilab/svn/prive/formation/python/syntaxe/funccall_ref_1.png"
         y="428.82117"
         x="127.99"
         height="40.475468"
         width="40.475468"
         id="rect2492"
         style="opacity:1;fill:#ffffff;fill-opacity:1;fill-rule:nonzero;stroke:#000000;stroke-width:4;stroke-miterlimit:4;stroke-dasharray:none;stroke-dashoffset:0;stroke-opacity:1" />
      <text
         inkscape:export-ydpi="54.810112"
         inkscape:export-xdpi="54.810112"
         inkscape:export-filename="/home/david/logilab/svn/prive/formation/python/syntaxe/funccall_ref_1.png"
         id="text2494"
         y="462.29181"
         x="134.11894"
         style="font-size:48.48125076px;font-style:normal;font-weight:normal;fill:#000000;fill-opacity:1;stroke:none;stroke-width:1px;stroke-linecap:butt;stroke-linejoin:miter;stroke-opacity:1;font-family:Bitstream Vera Sans"
         xml:space="preserve"><tspan
           y="462.29181"
           x="134.11894"
           id="tspan2496"
           sodipodi:role="line">a</tspan></text>
    </g>
    <path
       style="fill:none;fill-opacity:0.75;fill-rule:evenodd;stroke:#000000;stroke-width:4;stroke-linecap:butt;stroke-linejoin:miter;marker-end:url(#Arrow2Mend);stroke-miterlimit:4;stroke-dasharray:none;stroke-opacity:1;display:inline"
       d="M 203.99681,387.65009 L 306.99681,319.46086"
       id="path4112"
       inkscape:connector-type="polyline"
       inkscape:export-filename="/home/david/logilab/svn/prive/formation/python/syntaxe/funccall_ref_1.png"
       inkscape:export-xdpi="54.810112"
       inkscape:export-ydpi="54.810112"
       inkscape:connection-end="#g6535"
       inkscape:connection-start="#g6548"
       sodipodi:nodetypes="cc" />
    <text
       xml:space="preserve"
       style="font-size:23.20943206px;font-style:normal;font-weight:normal;fill:#000000;fill-opacity:1;stroke:none;stroke-width:1px;stroke-linecap:butt;stroke-linejoin:miter;stroke-opacity:1;font-family:Bitstream Vera Sans;-inkscape-font-specification:Bitstream Vera Sans;font-stretch:normal;font-variant:normal;text-anchor:start;text-align:start;writing-mode:lr;line-height:125%"
       x="13.436653"
       y="591.77417"
       id="text3810"
       transform="scale(0.8165132,1.22472)"
       sodipodi:linespacing="125%"><tspan
         sodipodi:role="line"
         id="tspan2862">f's local</tspan><tspan
         sodipodi:role="line"
         id="tspan2864">namespace</tspan></text>
    <g
       id="g6540"
       transform="translate(88.608458,53.60265)">
      <rect
         style="opacity:1;fill:#ffffff;fill-opacity:1;fill-rule:nonzero;stroke:#000000;stroke-width:4;stroke-miterlimit:4;stroke-dasharray:none;stroke-dashoffset:0;stroke-opacity:1"
         id="rect6542"
         width="54.696579"
         height="45.945126"
         x="243.94675"
         y="335.83701"
         inkscape:export-filename="/home/david/logilab/svn/prive/formation/python/syntaxe/funccall_ref_1.png"
         inkscape:export-xdpi="54.810112"
         inkscape:export-ydpi="54.810112" />
      <text
         xml:space="preserve"
         style="font-size:32.40753555px;font-style:normal;font-weight:normal;fill:#000000;fill-opacity:1;stroke:none;stroke-width:1px;stroke-linecap:butt;stroke-linejoin:miter;stroke-opacity:1;font-family:Bitstream Vera Sans"
         x="250.51022"
         y="370.83582"
         id="text6544"
         inkscape:export-filename="/home/david/logilab/svn/prive/formation/python/syntaxe/funccall_ref_1.png"
         inkscape:export-xdpi="54.810112"
         inkscape:export-ydpi="54.810112"><tspan
           sodipodi:role="line"
           id="tspan6546"
           x="250.51022"
           y="370.83582">24</tspan></text>
    </g>
    <g
       id="g6553"
       transform="translate(16.408977,79.857007)">
      <rect
         style="opacity:1;fill:#ffffff;fill-opacity:1;fill-rule:nonzero;stroke:#000000;stroke-width:4;stroke-miterlimit:4;stroke-dasharray:none;stroke-dashoffset:0;stroke-opacity:1"
         id="rect6555"
         width="40.475468"
         height="40.475468"
         x="127.99"
         y="428.82117"
         inkscape:export-filename="/home/david/logilab/svn/prive/formation/python/syntaxe/funccall_ref_1.png"
         inkscape:export-xdpi="54.810112"
         inkscape:export-ydpi="54.810112" />
      <text
         xml:space="preserve"
         style="font-size:48.48125076px;font-style:normal;font-weight:normal;fill:#000000;fill-opacity:1;stroke:none;stroke-width:1px;stroke-linecap:butt;stroke-linejoin:miter;stroke-opacity:1;font-family:Bitstream Vera Sans"
         x="134.11894"
         y="462.29181"
         id="text6557"
         inkscape:export-filename="/home/david/logilab/svn/prive/formation/python/syntaxe/funccall_ref_1.png"
         inkscape:export-xdpi="54.810112"
         inkscape:export-ydpi="54.810112"><tspan
           sodipodi:role="line"
           id="tspan6559"
           x="134.11894"
           y="462.29181">x</tspan></text>
    </g>
    <g
       transform="translate(27.3483,146.58683)"
       id="g6561">
      <rect
         inkscape:export-ydpi="54.810112"
         inkscape:export-xdpi="54.810112"
         inkscape:export-filename="/home/david/logilab/svn/prive/formation/python/syntaxe/funccall_ref_1.png"
         y="428.82117"
         x="127.99"
         height="40.475468"
         width="40.475468"
         id="rect6563"
         style="opacity:1;fill:#ffffff;fill-opacity:1;fill-rule:nonzero;stroke:#000000;stroke-width:4;stroke-miterlimit:4;stroke-dasharray:none;stroke-dashoffset:0;stroke-opacity:1" />
      <text
         inkscape:export-ydpi="54.810112"
         inkscape:export-xdpi="54.810112"
         inkscape:export-filename="/home/david/logilab/svn/prive/formation/python/syntaxe/funccall_ref_1.png"
         id="text6565"
         y="462.29181"
         x="134.11894"
         style="font-size:48.48125076px;font-style:normal;font-weight:normal;fill:#000000;fill-opacity:1;stroke:none;stroke-width:1px;stroke-linecap:butt;stroke-linejoin:miter;stroke-opacity:1;font-family:Bitstream Vera Sans"
         xml:space="preserve"><tspan
           y="462.29181"
           x="134.11894"
           id="tspan6567"
           sodipodi:role="line">c</tspan></text>
    </g>
    <path
       inkscape:export-ydpi="54.810112"
       inkscape:export-xdpi="54.810112"
       inkscape:export-filename="/home/david/logilab/svn/prive/formation/python/syntaxe/funccall_ref_1.png"
       inkscape:connector-type="polyline"
       id="path6571"
       d="M 184.08493,508.86603 C 184.08493,508.86603 222.61688,485.17266 256.7731,438.50673 C 290.92932,391.84079 320.16286,341.89306 320.16286,341.89306"
       style="fill:none;fill-opacity:0.75;fill-rule:evenodd;stroke:#000000;stroke-width:4;stroke-linecap:butt;stroke-linejoin:miter;marker-end:url(#Arrow2Mend);stroke-miterlimit:4;stroke-dasharray:none;stroke-opacity:1;display:inline"
       inkscape:connection-end="#g6535"
       sodipodi:nodetypes="csc"
       inkscape:connection-start="#g6553" />
    <path
       style="fill:none;fill-opacity:0.75;fill-rule:evenodd;stroke:#000000;stroke-width:2;stroke-linecap:butt;stroke-linejoin:miter;stroke-opacity:1;display:inline;stroke-miterlimit:4;stroke-dasharray:4,2;stroke-dashoffset:0;marker-start:none;marker-end:url(#Arrow1Lend)"
       d="M 22.972563,532.65074 L 109.90625,408.50415"
       id="path9487"
       transform="translate(8.3301905,171.24726)"
       inkscape:connector-type="polyline"
       inkscape:connection-end="#path6573" />
    <text
       inkscape:export-ydpi="54.810112"
       inkscape:export-xdpi="54.810112"
       inkscape:export-filename="/home/david/logilab/svn/prive/formation/python/syntaxe/funccall_ref_1.png"
       transform="scale(0.9688646,1.032136)"
       id="text10462"
       y="213.39397"
       x="16.771446"
       style="font-size:31.76276918px;font-style:normal;font-weight:normal;fill:#000000;fill-opacity:1;stroke:none;stroke-width:1px;stroke-linecap:butt;stroke-linejoin:miter;stroke-opacity:1;font-family:Bitstream Vera Sans;-inkscape-font-specification:Bitstream Vera Sans;font-stretch:normal;font-variant:normal;text-anchor:start;text-align:start;writing-mode:lr;line-height:125%"
       xml:space="preserve"
       sodipodi:linespacing="125%"><tspan
         sodipodi:role="line"
         id="tspan2858">Names</tspan></text>
    <path
       style="fill:none;fill-opacity:0.75;fill-rule:evenodd;stroke:#000000;stroke-width:4;stroke-linecap:butt;stroke-linejoin:miter;stroke-opacity:1;opacity:1;color:#000000;marker:none;marker-start:none;marker-mid:none;marker-end:url(#Arrow2Mend);stroke-miterlimit:4;stroke-dasharray:none;stroke-dashoffset:0;visibility:visible;display:inline;overflow:visible;enable-background:accumulate"
       d="M 187.03817,404.89557 L 318.39625,270.33916"
       id="path10471"
       transform="translate(8.3301905,171.24726)"
       inkscape:connector-type="polyline"
       inkscape:connection-end="#g6540"
       sodipodi:nodetypes="cc"
       inkscape:connection-start="#g6561" />
  </g>
</svg>
